Empresa,Persona mejor pagada,Sueldo trabajador
Aedas Homes,836000,86961
Alantra Partners,2550000,228693
Alba,1100000,142599
Almirall,820000,102234
Amper,41000,44421
Amrest Holding,1364000,10339
Applus Services,1420000,42724
Arima,107000,107000
Atresmedia,1892000,65803
Audax Renovables,131330,41368
Azkoyen,290545,61092
Barón de Ley,832000,46643
BME,1486000,101000
Bodegas Riojanas,121000,38838
Borges,252000,31143
CAF,1700000,53839
Codere,2350000,17752
Deoleo,515000,72736
Dia,2560000,17665
Duro Felguera,500000,58324
Ebro Foods,2480000,50398
Elecnor,1640000,44883
Ercros,550000,61915
Euskaltel,540000,65462
Ezentis,181000,15458
Faes,1296000,60207
FCC,730000,31801
Fluidra,3550000,44377
GAM,1010000,37066
Gestamp,960000,36120
Global Dominion,710000,34125
G. Catalana Occidente,1320000,76783
Grupo Sanjosé,1580000,36846
Hispania,170000,36519
Iberpapel,410000,66285
Inmobiliaria del Sur,280000,52058
Lar España,140000,125500
Liberbank,440000,59262
Lingontes Especiales,220000,45209
Logista,3250000,47989
Masmovil,13205000,83704
Metrovacesa,2170000,92388
Nicolás Correa,550000,51015
Natra,250000,55860
Naturhouse,874000,35160
Neinor Homes,1350000,86409
NH Hotel Group,970000,38233
Oryzon,380000,72825
Parques Reunidos,718000,8273
Pescanova,106000,70667
Pharma Mar,1600000,84643
Prisa,860000,44907
Prosegur,6811000,15773
Prosegur Cash,920000,15476
Quabit,1231000,116328
Realia Business,251000,73789
Reig Jofre,493000,49004
Renta Corporación,470000,122447
Renta 4 Banco,420000,63913
Rovi,907000,58048
Sniace,351000,30593
Solaria,150000,77561
Solarpack,273000,54450
Talgo,570000,50713
Telepizza,2980000,18693
Tubacex,1667000,56010
Unicaja Banco,780000,56473
Vértice 360,200000,44182
Vidrala,809000,51067
Vocento,810000,53890
Zardoya Otis,980000,46444